{
    "name": "pfy-account-connector",
    "config": {
        "connector.class": "io.debezium.connector.mysql.MySqlConnector",
        "tasks.max": "4",
        "database.hostname": "mysql",
        "database.port": "3306",
        "database.user": "debezium",
        "database.password": "dbz",
        "database.server.id": "184054",
        "database.server.name": "marlaw1",
        "database.whitelist": "pfy-account",
        "database.history.kafka.bootstrap.servers": "kafka:9092",
        "database.history.kafka.topic": "schema-changes.account",
        "snapshot.mode":"never"
    }
}